digraph {
	rankdir=LR
	Democrat [label=Democrat color=red]
	"Democrat.controlled" [label=controlled]
	Democrat -> "Democrat.controlled" [label=1]
	"Democrat.controlled.Rhode Island state Senate" [label="Rhode Island state Senate"]
	"Democrat.controlled" -> "Democrat.controlled.Rhode Island state Senate" [label=1]
}
